................
----------------------------------------------------------------------
Ran 16 tests in 2.579s

OK
Name             Stmts   Miss Branch BrPart  Cover   Missing
------------------------------------------------------------
Collatz.py          33      0     12      0   100%
TestCollatz.py      71      0      0      0   100%
------------------------------------------------------------
TOTAL              104      0     12      0   100%
