1 10 20
100 200 125
201 210 89
900 1000 174
0 0 0
1 1 1
2 1 2
837799 837799 525
149639 280001 443
369925 2213 443
345758 63646 443
145565 272690 443
827390 140291 509
569322 566624 359
136022 43324 354
384341 839373 525
646767 461308 509
957707 310064 525
588230 786949 509
108314 58303 354
949175 730632 525
429857 831195 509
74718 32438 340
674890 737565 504
412195 298368 449
972790 97016 525
52384 749850 509
423731 719695 509
750568 517565 509
94128 740348 509
487417 353631 449
434125 303760 449
996584 700915 525
129320 840861 525
933452 957373 507
55318 112143 354
266450 985988 525
348642 523128 470
742662 380003 509
91259 417012 449
552185 42893 470
883131 490880 525
323858 531478 470
307056 335295 384
773664 532970 509
370697 819458 509
690582 321128 509
264877 937400 525
14549 353013 443
877698 473184 525
513451 671808 509
484584 959691 525
446604 461530 444
159982 356494 443
624958 555212 447
985709 246339 525
432175 697813 509
349263 904964 525
654023 217300 509
275901 371269 441
468795 764658 509
724187 179768 509
806613 460299 509
988342 806148 525
33415 358682 443
124574 952891 525
554216 732378 509
867202 74298 525
330463 64367 443
954086 594569 525
634614 756791 504
989027 133675 525
439782 163588 449
929435 841646 476
158371 494535 449
888867 365590 525
791558 134683 509
526410 954544 525
242844 909460 525
85997 200032 383
805846 40217 509
823517 750446 468
706974 61837 509
216302 926913 525
229637 147242 386
28334 426560 449
873335 473759 525
909551 401525 525
648423 643752 341
827554 328880 509
787821 821467 468
32070 833899 509
535934 213378 470
184589 457192 449
894483 982574 507
925424 354285 525
388835 337234 441
434919 213460 449
519510 977007 525
228634 350609 443
108471 237763 443
888295 240770 525
401848 537360 470
55924 320918 443
297106 486406 449
638470 276490 509
379183 35033 443
885083 216473 525
