....................
----------------------------------------------------------------------
Ran 20 tests in 0.976s

OK
Name             Stmts   Miss Branch BrPart  Cover   Missing
------------------------------------------------------------
Collatz.py          59      0     28      0   100%
TestCollatz.py      86      0      0      0   100%
------------------------------------------------------------
TOTAL              145      0     28      0   100%
