...................
----------------------------------------------------------------------
Ran 19 tests in 0.060s

OK
Name             Stmts   Miss Branch BrPart  Cover   Missing
------------------------------------------------------------
Collatz.py          46      1     32      3    95%   29, 27->29, 53->55, 71->exit
TestCollatz.py      83      0      0      0   100%
------------------------------------------------------------
TOTAL              129      1     32      3    98%
