1 10 20
100 200 125
201 210 89
900 1000 174
10 1 20
1 1 1
100 1 119
200 2 125
3 40 112
40 100 119
200 20 125
1000 2000 182
2000 3000 217
3000 1000 217
30 10 112
2000 203 182
206 823 171
294 34 128
12 94 116
3 5 8
98 43 119
73 9 116
482 19 144
829 7 171
7 829 171
64 128 119
128 64 119
39 2193 182
19 39 112
2193 2399 183
39 431 144
2399 431 183
239 2349 183
9128 2847 262
1992 394 182
2394 3484 217
394 3094 217
938 938 24
2938 4983 238
3048 3949 238
30 30 19
340 301 144
2304 3048 217
3084 3 217
574 4958 238
4850 32 238
2938 359 217
4940 34 238
405 494 142
492 54 144
4955 543 238
3242 453 217
12 43 112
455 87 144
124 94 119
2 89 116
23 924 179
83 23 116
2193 383 182
393 474 134
484 394 134
4489 494 238
294 923 179
2944 492 217
4934 493 238
893 384 179
2398 348 183
384 91 144
31 2 112
34 3 112
34 4 112
100000 99999 227
99999 100000 227
1 100000 351
10000 1 262
28338 92920 351
12938 938 268
39393 2 324
92023 2938 351
392 3 144
3 92102 351
9329 93021 351
48392 392 324
2348 76584 340
57839 5748 340
39487 5748 324
748 7438 262
45739 28 324
74329 47327 340
1324 475 182
324 653 145
45374 247 324
24576 56473 340
54672 45743 340
45737 56356 340
90544 5469 351
45693 34506 324
464 25 144
2 3 8
53 94 116
4353 734 238
23 3 21
345 1 144
35 35 14
345 2 144
354 2 144
4653 5 238
5 4653 238
4353 2 238
34562 6 311
6 34562 311
