...................
----------------------------------------------------------------------
Ran 19 tests in 28.637s

OK
Name             Stmts   Miss Branch BrPart  Cover   Missing
------------------------------------------------------------
Collatz.py          43      0     22      1    98%   75->78
TestCollatz.py      83      0      0      0   100%
------------------------------------------------------------
TOTAL              126      0     22      1    99%
