....................
----------------------------------------------------------------------
Ran 20 tests in 0.200s

OK
Name             Stmts   Miss Branch BrPart  Cover   Missing
------------------------------------------------------------
Collatz.py          35      0     16      0   100%
TestCollatz.py      86      0      0      0   100%
------------------------------------------------------------
TOTAL              121      0     16      0   100%
